Fundamentals of R
…
`filter ()` subsets data frame by a condition in the observations.

```r
io_income_filter <- filter(io_income, donor=="Switzerland")
```
--

```
## # A tibble: 91 × 4
##     year donor       type_donor amount_nominal
##    <dbl> <chr>       <chr>               <dbl>
##  1  2016 Switzerland public            372314.
##  2  2013 Switzerland public           4415632.
##  3  2020 Switzerland public          22579000 
##  4  2020 Switzerland public              5858.
##  5  2013 Switzerland public           2751917.
##  6  2017 Switzerland public            370569.
##  7  2018 Switzerland public           2819624.
##  8  2016 Switzerland public              5074.
##  9  2005 Switzerland public          74569884.
## 10  2018 Switzerland public          42837379 
## # … with 81 more rows
```
…
`mutate ()` creates new variables.

```r
io_income_mutate <- mutate(io_income,thousands_USD=amount_nominal/1000)
```
-- 

```
## # A tibble: 4,500 × 5
##     year donor      type_donor amount_nominal thousands_USD
##    <dbl> <chr>      <chr>               <dbl>         <dbl>
##  1  2007 Italy      public          19074876       19075.  
##  2  2015 Denmark    public          14863463.      14863.  
##  3  2011 Spain      public           4779105.       4779.  
##  4  2020 Italy      public          32570000       32570   
##  5  2018 Madagascar public             11667.         11.7 
##  6  2011 India      public             50000          50   
##  7  2021 Japan      public          17300000       17300   
##  8  2011 Maldives   public              1604.          1.60
##  9  2003 Thailand   public            304592.        305.  
## 10  2005 Kiribati   public              2163.          2.16
## # … with 4,490 more rows
```
…
