Fundamentals of R
…
.pull-left[

```r
io_income_rs %>%
  drop_na(donor)%>%
  group_by(donor, type_donor)%>%
  summarize(amount_nominal = sum(amount_nominal, na.rm = TRUE)) %>% 
  arrange(desc(amount_nominal))%>%
  slice_head(n=10)
```

```
## # A tibble: 556 × 3
## # Groups:   donor [555]
##    donor                                        type_donor amount_nominal
##    <chr>                                        <chr>               <dbl>
##  1 23Technology Limited, United Kingdom         <NA>                  1.5
##  2 ABB Asea Brown Boveri Ltd.                   private         2199834. 
##  3 Afghanistan                                  public           169453. 
##  4 Africa Agriculture and Trade Investment Fund private          175058  
##  5 Africa Re Foundation                         private          117000  
##  6 African Development Bank                     public         15561000  
##  7 African Field Epidemiology Network (AFENET)  private          241500  
##  8 African Reinsurance Corporation              private          103513  
##  9 African Union                                public           460000  
## 10 AG Fund                                      private           52817. 
## # … with 546 more rows
```
…
