Fundamentals of R
…
`filter ()` subsets data frame by a condition in the observations.

```r
io_income_filter <- filter(io_income, donor=="Switzerland")
```
--

```
## # A tibble: 89 × 4
##     year donor       type_donor amount_nominal
##    <dbl> <chr>       <chr>               <dbl>
##  1  2000 Switzerland public           320345. 
##  2  2000 Switzerland public         58976921. 
##  3  2001 Switzerland public          1276541. 
##  4  2001 Switzerland public            11933  
##  5  2001 Switzerland public           231191  
##  6  2002 Switzerland public          1400389. 
##  7  2002 Switzerland public               64.2
##  8  2002 Switzerland public           599408  
##  9  2002 Switzerland public              128. 
## 10  2002 Switzerland public         57295239. 
## # … with 79 more rows
```
…
`mutate ()` creates new variables.

```r
io_income_mutate <- mutate(io_income,thousands_USD=amount_nominal/1000)
```
--

```
## # A tibble: 4,386 × 5
##     year donor                                  type_donor amount_nomi…¹ thous…²
##    <dbl> <chr>                                  <chr>              <dbl>   <dbl>
##  1  2000 Maldives                               public             1057.    1.06
##  2  2000 Estonia                                public            18192.   18.2 
##  3  2000 Burundi                                public             2082.    2.08
##  4  2000 Mozambique                             public             1057.    1.06
##  5  2000 Morocco                                public            43350.   43.3 
##  6  2000 Mozambique                             public             3580     3.58
##  7  2000 Sasakawa Endowment Fund Interest (JPN) private          105000   105   
##  8  2000 China                                  public          1052019. 1052.  
##  9  2000 New Zealand                            public            70848    70.8 
## 10  2000 Mc Henry Tichenor (USA)                private           25000    25   
## # … with 4,376 more rows, and abbreviated variable names ¹​amount_nominal,
## #   ²​thousands_USD
```
…
