Fundamentals of R
…
---

# Wrangling (8/8)

If I wanted to add a region column in the income of international organizations data, which join should I use?

--

```r
left_join(io_income, country_region)
```

```
#> # A tibble: 4,386 × 5
#>     year donor                                  type_donor amount_nominal region
#>    <dbl> <chr>                                  <chr>               <dbl> <chr> 
#>  1  2000 Maldives                               public              1057. Asia  
#>  2  2000 Estonia                                public             18192. Europe
#>  3  2000 Burundi                                public              2082. Africa
#>  4  2000 Mozambique                             public              1057. Africa
#>  5  2000 Morocco                                public             43350. Africa
#>  6  2000 Mozambique                             public              3580  Africa
#>  7  2000 Sasakawa Endowment Fund Interest (JPN) private           105000  <NA>  
#>  8  2000 China                                  public           1052019. Asia  
#>  9  2000 New Zealand                            public             70848  Ocean…
#> 10  2000 Mc Henry Tichenor (USA)                private            25000  <NA>  
#> # … with 4,376 more rows
```
…
